; Engine configuration file.
; It's best edited using the editor UI and not directly,
; since the parameters that go here are not all obvious.
;
; Format:
;   [section] ; section goes between []
;   param=value ; assign values to parameters

config_version=4

_global_script_classes=[  ]
_global_script_class_icons={

}

[application]

config/name="Lowrez Boilerplate"
run/main_scene="res://scenes/landing.tscn"

[display]

window/size/width=64
window/size/height=64
window/size/test_width=512
window/size/test_height=512
window/stretch/mode="viewport"
window/stretch/aspect="keep"

[rendering]

quality/driver/driver_name="GLES2"
quality/intended_usage/framebuffer_allocation=0
quality/intended_usage/framebuffer_allocation.mobile=0
quality/2d/use_pixel_snap=true
vram_compression/import_etc=true
vram_compression/import_etc2=false
environment/default_clear_color=Color( 0.133333, 0.137255, 0.133333, 1 )
